^H:\RP_CODE\МШ\SOURCE\SOURCEWIN32\WIN32\SOURCE\L6XX_CONFIGLOADER\RELEASE\L6XX_CONFIGLOADER.EXE.INTERMEDIATE.MANIFEST
C:\WINDOWS\REGISTRATION\R000000000004.CLB
C:\WINDOWS\MICROSOFT.NET\FRAMEWORK\V2.0.50727\MSCORWKS.DLL
C:\WINDOWS\MICROSOFT.NET\FRAMEWORK\V4.0.30319\CLR.DLL
C:\PROGRAM FILES (X86)\MICROSOFT SDKS\WINDOWS\V7.0A\BIN\MT.EXE.CONFIG
H:\RP_CODE\МШ\SOURCE\SOURCEWIN32\WIN32\SOURCE\RELEASE\L6XX_CONFIGLOADER.EXE
