D:\GITHUBANDGITLAB\MSH3_MODULE\0.1\WIN32\SOURCE\DEBUG\L6XX_CONFIGLOADER.EXE
D:\GITHUBANDGITLAB\MSH3_MODULE\0.1\WIN32\SOURCE\DEBUG\L6XX_CONFIGLOADER.ILK
D:\GITHUBANDGITLAB\MSH3_MODULE\0.1\WIN32\SOURCE\DEBUG\L6XX_CONFIGLOADER.PDB
D:\GitHubAndGitlab\MSH3_Module\0.1\Win32\Source\L6xx_ConfigLoader\Debug\CL.10504.read.1.tlog
D:\GitHubAndGitlab\MSH3_Module\0.1\Win32\Source\L6xx_ConfigLoader\Debug\CL.10504.write.1.tlog
D:\GitHubAndGitlab\MSH3_Module\0.1\Win32\Source\L6xx_ConfigLoader\Debug\CL.11000.read.1.tlog
D:\GitHubAndGitlab\MSH3_Module\0.1\Win32\Source\L6xx_ConfigLoader\Debug\CL.11000.write.1.tlog
D:\GitHubAndGitlab\MSH3_Module\0.1\Win32\Source\L6xx_ConfigLoader\Debug\CL.2184.read.1.tlog
D:\GitHubAndGitlab\MSH3_Module\0.1\Win32\Source\L6xx_ConfigLoader\Debug\CL.2184.write.1.tlog
D:\GitHubAndGitlab\MSH3_Module\0.1\Win32\Source\L6xx_ConfigLoader\Debug\CL.3148.read.1.tlog
D:\GitHubAndGitlab\MSH3_Module\0.1\Win32\Source\L6xx_ConfigLoader\Debug\CL.3148.write.1.tlog
D:\GitHubAndGitlab\MSH3_Module\0.1\Win32\Source\L6xx_ConfigLoader\Debug\CL.4672.read.1.tlog
D:\GitHubAndGitlab\MSH3_Module\0.1\Win32\Source\L6xx_ConfigLoader\Debug\CL.4672.write.1.tlog
D:\GitHubAndGitlab\MSH3_Module\0.1\Win32\Source\L6xx_ConfigLoader\Debug\CL.5480.read.1.tlog
D:\GitHubAndGitlab\MSH3_Module\0.1\Win32\Source\L6xx_ConfigLoader\Debug\CL.5480.write.1.tlog
D:\GitHubAndGitlab\MSH3_Module\0.1\Win32\Source\L6xx_ConfigLoader\Debug\CL.5920.read.1.tlog
D:\GitHubAndGitlab\MSH3_Module\0.1\Win32\Source\L6xx_ConfigLoader\Debug\CL.5920.write.1.tlog
D:\GitHubAndGitlab\MSH3_Module\0.1\Win32\Source\L6xx_ConfigLoader\Debug\CL.6728.read.1.tlog
D:\GitHubAndGitlab\MSH3_Module\0.1\Win32\Source\L6xx_ConfigLoader\Debug\CL.6728.write.1.tlog
D:\GitHubAndGitlab\MSH3_Module\0.1\Win32\Source\L6xx_ConfigLoader\Debug\CL.8208.read.1.tlog
D:\GitHubAndGitlab\MSH3_Module\0.1\Win32\Source\L6xx_ConfigLoader\Debug\CL.8208.write.1.tlog
D:\GitHubAndGitlab\MSH3_Module\0.1\Win32\Source\L6xx_ConfigLoader\Debug\CL.872.read.1.tlog
D:\GitHubAndGitlab\MSH3_Module\0.1\Win32\Source\L6xx_ConfigLoader\Debug\CL.872.write.1.tlog
D:\GitHubAndGitlab\MSH3_Module\0.1\Win32\Source\L6xx_ConfigLoader\Debug\CL.8888.read.1.tlog
D:\GitHubAndGitlab\MSH3_Module\0.1\Win32\Source\L6xx_ConfigLoader\Debug\CL.8888.write.1.tlog
D:\GitHubAndGitlab\MSH3_Module\0.1\Win32\Source\L6xx_ConfigLoader\Debug\CL.9868.read.1.tlog
D:\GitHubAndGitlab\MSH3_Module\0.1\Win32\Source\L6xx_ConfigLoader\Debug\CL.9868.write.1.tlog
D:\GitHubAndGitlab\MSH3_Module\0.1\Win32\Source\L6xx_ConfigLoader\Debug\cl.command.1.tlog
D:\GitHubAndGitlab\MSH3_Module\0.1\Win32\Source\L6xx_ConfigLoader\Debug\CL.read.1.tlog
D:\GitHubAndGitlab\MSH3_Module\0.1\Win32\Source\L6xx_ConfigLoader\Debug\CL.write.1.tlog
D:\GITHUBANDGITLAB\MSH3_MODULE\0.1\WIN32\SOURCE\L6XX_CONFIGLOADER\DEBUG\CONFIGPARCER.OBJ
D:\GitHubAndGitlab\MSH3_Module\0.1\Win32\Source\L6xx_ConfigLoader\Debug\L6xx_ConfigLoader.exe.embed.manifest
D:\GITHUBANDGITLAB\MSH3_MODULE\0.1\WIN32\SOURCE\L6XX_CONFIGLOADER\DEBUG\L6XX_CONFIGLOADER.EXE.EMBED.MANIFEST.RES
D:\GITHUBANDGITLAB\MSH3_MODULE\0.1\WIN32\SOURCE\L6XX_CONFIGLOADER\DEBUG\L6XX_CONFIGLOADER.EXE.INTERMEDIATE.MANIFEST
D:\GITHUBANDGITLAB\MSH3_MODULE\0.1\WIN32\SOURCE\L6XX_CONFIGLOADER\DEBUG\L6XX_CONFIGLOADER.OBJ
D:\GITHUBANDGITLAB\MSH3_MODULE\0.1\WIN32\SOURCE\L6XX_CONFIGLOADER\DEBUG\L6XX_CONFIGLOADER.PCH
D:\GitHubAndGitlab\MSH3_Module\0.1\Win32\Source\L6xx_ConfigLoader\Debug\L6xx_ConfigLoader.vcxprojResolveAssemblyReference.cache
D:\GitHubAndGitlab\MSH3_Module\0.1\Win32\Source\L6xx_ConfigLoader\Debug\L6xx_ConfigLoader.write.1.tlog
D:\GitHubAndGitlab\MSH3_Module\0.1\Win32\Source\L6xx_ConfigLoader\Debug\L6xx_ConfigLoader_manifest.rc
D:\GitHubAndGitlab\MSH3_Module\0.1\Win32\Source\L6xx_ConfigLoader\Debug\link.12196.read.1.tlog
D:\GitHubAndGitlab\MSH3_Module\0.1\Win32\Source\L6xx_ConfigLoader\Debug\link.12196.write.1.tlog
D:\GitHubAndGitlab\MSH3_Module\0.1\Win32\Source\L6xx_ConfigLoader\Debug\link.12196-cvtres.read.1.tlog
D:\GitHubAndGitlab\MSH3_Module\0.1\Win32\Source\L6xx_ConfigLoader\Debug\link.12196-cvtres.write.1.tlog
D:\GitHubAndGitlab\MSH3_Module\0.1\Win32\Source\L6xx_ConfigLoader\Debug\link.5588.read.1.tlog
D:\GitHubAndGitlab\MSH3_Module\0.1\Win32\Source\L6xx_ConfigLoader\Debug\link.5588.write.1.tlog
D:\GitHubAndGitlab\MSH3_Module\0.1\Win32\Source\L6xx_ConfigLoader\Debug\link.5588-cvtres.read.1.tlog
D:\GitHubAndGitlab\MSH3_Module\0.1\Win32\Source\L6xx_ConfigLoader\Debug\link.5588-cvtres.write.1.tlog
D:\GitHubAndGitlab\MSH3_Module\0.1\Win32\Source\L6xx_ConfigLoader\Debug\link.command.1.tlog
D:\GitHubAndGitlab\MSH3_Module\0.1\Win32\Source\L6xx_ConfigLoader\Debug\link.read.1.tlog
D:\GitHubAndGitlab\MSH3_Module\0.1\Win32\Source\L6xx_ConfigLoader\Debug\link.write.1.tlog
D:\GitHubAndGitlab\MSH3_Module\0.1\Win32\Source\L6xx_ConfigLoader\Debug\link-cvtres.read.1.tlog
D:\GitHubAndGitlab\MSH3_Module\0.1\Win32\Source\L6xx_ConfigLoader\Debug\link-cvtres.write.1.tlog
D:\GitHubAndGitlab\MSH3_Module\0.1\Win32\Source\L6xx_ConfigLoader\Debug\mt.command.1.tlog
D:\GitHubAndGitlab\MSH3_Module\0.1\Win32\Source\L6xx_ConfigLoader\Debug\mt.read.1.tlog
D:\GitHubAndGitlab\MSH3_Module\0.1\Win32\Source\L6xx_ConfigLoader\Debug\mt.write.1.tlog
D:\GITHUBANDGITLAB\MSH3_MODULE\0.1\WIN32\SOURCE\L6XX_CONFIGLOADER\DEBUG\MXCOMM.OBJ
D:\GITHUBANDGITLAB\MSH3_MODULE\0.1\WIN32\SOURCE\L6XX_CONFIGLOADER\DEBUG\MYCOMMAND.OBJ
D:\GitHubAndGitlab\MSH3_Module\0.1\Win32\Source\L6xx_ConfigLoader\Debug\rc.command.1.tlog
D:\GitHubAndGitlab\MSH3_Module\0.1\Win32\Source\L6xx_ConfigLoader\Debug\rc.read.1.tlog
D:\GitHubAndGitlab\MSH3_Module\0.1\Win32\Source\L6xx_ConfigLoader\Debug\rc.write.1.tlog
D:\GITHUBANDGITLAB\MSH3_MODULE\0.1\WIN32\SOURCE\L6XX_CONFIGLOADER\DEBUG\STDAFX.OBJ
D:\GITHUBANDGITLAB\MSH3_MODULE\0.1\WIN32\SOURCE\L6XX_CONFIGLOADER\DEBUG\STEPERCONVERSION.OBJ
D:\GitHubAndGitlab\MSH3_Module\0.1\Win32\Source\L6xx_ConfigLoader\Debug\vc100.idb
D:\GITHUBANDGITLAB\MSH3_MODULE\0.1\WIN32\SOURCE\L6XX_CONFIGLOADER\DEBUG\VC100.PDB
D:\Рентгенпром\Модули\MSH3\28.09.2017\20-28\L6XX_CONFIGLOADER\DEBUG\L6XX_CONFIGLOADER.EXE
D:\Рентгенпром\Модули\MSH3\28.09.2017\20-28\L6XX_CONFIGLOADER\DEBUG\L6XX_CONFIGLOADER.ILK
D:\РЕНТГЕНПРОМ\МОДУЛИ\MSH3\28.09.2017\20-28\L6XX_CONFIGLOADER\DEBUG\L6XX_CONFIGLOADER.PDB
D:\Рентгенпром\Модули\MSH3\28.09.2017\20-28\L6XX_CONFIGLOADER\L6XX_CONFIGLOADER\DEBUG\CONFIGPARCER.OBJ
D:\Рентгенпром\Модули\MSH3\28.09.2017\20-28\L6XX_CONFIGLOADER\L6XX_CONFIGLOADER\DEBUG\L6XX_CONFIGLOADER.EXE.EMBED.MANIFEST
D:\Рентгенпром\Модули\MSH3\28.09.2017\20-28\L6XX_CONFIGLOADER\L6XX_CONFIGLOADER\DEBUG\L6XX_CONFIGLOADER.EXE.EMBED.MANIFEST.RES
D:\Рентгенпром\Модули\MSH3\28.09.2017\20-28\L6XX_CONFIGLOADER\L6XX_CONFIGLOADER\DEBUG\L6XX_CONFIGLOADER.EXE.INTERMEDIATE.MANIFEST
D:\Рентгенпром\Модули\MSH3\28.09.2017\20-28\L6XX_CONFIGLOADER\L6XX_CONFIGLOADER\DEBUG\L6XX_CONFIGLOADER.OBJ
D:\Рентгенпром\Модули\MSH3\28.09.2017\20-28\L6XX_CONFIGLOADER\L6XX_CONFIGLOADER\DEBUG\L6XX_CONFIGLOADER.PCH
D:\Рентгенпром\Модули\MSH3\28.09.2017\20-28\L6XX_CONFIGLOADER\L6XX_CONFIGLOADER\DEBUG\MXCOMM.OBJ
D:\Рентгенпром\Модули\MSH3\28.09.2017\20-28\L6XX_CONFIGLOADER\L6XX_CONFIGLOADER\DEBUG\MYCOMMAND.OBJ
D:\Рентгенпром\Модули\MSH3\28.09.2017\20-28\L6XX_CONFIGLOADER\L6XX_CONFIGLOADER\DEBUG\STDAFX.OBJ
D:\Рентгенпром\Модули\MSH3\28.09.2017\20-28\L6XX_CONFIGLOADER\L6XX_CONFIGLOADER\DEBUG\STEPERCONVERSION.OBJ
D:\РЕНТГЕНПРОМ\МОДУЛИ\MSH3\28.09.2017\20-28\L6XX_CONFIGLOADER\L6XX_CONFIGLOADER\DEBUG\VC100.PDB
